…
``` r
# Flights by missing `dep_time` in which other variables are also missing
flights %>% 
  filter(is.na(dep_time)) %>%
  select(dep_time, dep_delay, arr_time, arr_delay, air_time)
```

    ## # A tibble: 8,255 × 5
    ##    dep_time dep_delay arr_time arr_delay air_time
    ##       <int>     <dbl>    <int>     <dbl>    <dbl>
    ##  1       NA        NA       NA        NA       NA
    ##  2       NA        NA       NA        NA       NA
    ##  3       NA        NA       NA        NA       NA
    ##  4       NA        NA       NA        NA       NA
    ##  5       NA        NA       NA        NA       NA
    ##  6       NA        NA       NA        NA       NA
    ##  7       NA        NA       NA        NA       NA
    ##  8       NA        NA       NA        NA       NA
    ##  9       NA        NA       NA        NA       NA
    ## 10       NA        NA       NA        NA       NA
    ## # … with 8,245 more rows
…
# Question 2

Currently `dep_time` and `sched_dep_time` are convenient to look at, but
hard to compute with because they’re not really continuous numbers.
Convert them to a more convenient representation of number of minutes
since midnight.

``` r
flights %>% 
  mutate(dep_time_min = (dep_time %/% 100) * 60 + (dep_time %% 100),
         sched_dep_time_min = (sched_dep_time %/% 100) * 60 + (sched_dep_time %% 100)) %>% 
  select(dep_time_min, sched_dep_time_min)
```

    ## # A tibble: 336,776 × 2
    ##    dep_time_min sched_dep_time_min
    ##           <dbl>              <dbl>
    ##  1          317                315
    ##  2          333                329
    ##  3          342                340
    ##  4          344                345
    ##  5          354                360
    ##  6          354                358
    ##  7          355                360
    ##  8          357                360
    ##  9          357                360
    ## 10          358                360
    ## # … with 336,766 more rows
…
